^Z:\IGMPROFILE\INTRO TO GAME DEVELOPMENT\SMASHCII\SMASHCII\DEBUG\ENGINE.OBJ|Z:\IGMPROFILE\INTRO TO GAME DEVELOPMENT\SMASHCII\SMASHCII\DEBUG\GRAPH.OBJ|Z:\IGMPROFILE\INTRO TO GAME DEVELOPMENT\SMASHCII\SMASHCII\DEBUG\GRAPHTEST.OBJ|Z:\IGMPROFILE\INTRO TO GAME DEVELOPMENT\SMASHCII\SMASHCII\DEBUG\VERTEX.OBJ
Z:\IGMPROFILE\INTRO TO GAME DEVELOPMENT\SMASHCII\DEBUG\SMASHCII.ILK
Z:\IGMPROFILE\INTRO TO GAME DEVELOPMENT\SMASHCII\DEBUG\SMASHCII.EXE
Z:\IGMPROFILE\INTRO TO GAME DEVELOPMENT\SMASHCII\DEBUG\SMASHCII.PDB
